1 solo_project – COMP/STAT112 Notebook
…
Here are the things we should be cared about. What is the prevalence of depression among students? How do factors like gender, academic pressure, sleep, financial stress, and GPA relate to depression? Are there interactions—such as gender moderating the impact of academic pressure—that reveal deeper complexity? Ultimately, can we identify key leverage points to inform mental health interventions? Our core message: Student depression is not a one-size-fits-all issue—it intersects with academic, personal, and social factors in nuanced ways.

Background

Before diving into the analysis, a few terms and assumptions need clarification:

Depression in this dataset is self-reported as either “Yes” or “No”. Academic pressure, financial stress, and family history of mental illness are categorical variables rated by students, often as “Low”, “Medium”, or “High”. Sleep duration is reported in hours. CGPA (Cumulative Grade Point Average) ranges from 0 to 4. This analysis treats depression as a binary outcome and uses both visual summaries and statistical models to explore associations.

library(tidyverse)
library(dplyr)
student_depression <- read_csv("~/Desktop/student_depression_dataset.csv")

print(student_depression)

# A tibble: 27,901 × 18
      id Gender   Age City  Profession `Academic Pressure` `Work Pressure`  CGPA
   <dbl> <chr>  <dbl> <chr> <chr>                    <dbl>           <dbl> <dbl>
 1     2 Male      33 Visa… Student                      5               0  8.97
 2     8 Female    24 Bang… Student                      2               0  5.9 
 3    26 Male      31 Srin… Student                      3               0  7.03
 4    30 Female    28 Vara… Student                      3               0  5.59
 5    32 Female    25 Jaip… Student                      4               0  8.13
 6    33 Male      29 Pune  Student                      2               0  5.7 
 7    52 Male      30 Thane Student                      3               0  9.54
 8    56 Female    30 Chen… Student                      2               0  8.04
 9    59 Male      28 Nagp… Student                      3               0  9.79
10    62 Male      31 Nash… Student                      2               0  8.38
# ℹ 27,891 more rows
# ℹ 10 more variables: `Study Satisfaction` <dbl>, `Job Satisfaction` <dbl>,
#   `Sleep Duration` <chr>, `Dietary Habits` <chr>, Degree <chr>,
#   `Have you ever had suicidal thoughts ?` <chr>, `Work/Study Hours` <dbl>,
#   `Financial Stress` <dbl>, `Family History of Mental Illness` <chr>,
#   Depression <dbl>
…
